Final HW 4
…
## The 'us_county' data frame reports the data for the U.S. at the county

## level. The column 'timestamp' reports the time the data was downloaded

## from its authoritative source.

## 

## For further information refer to:

## https://github.com/CSSEGISandData/COVID-19.

## 

## # A tibble: 116,280 x 7
##    country     iso3c date       confirmed deaths recovered timestamp          
##    <chr>       <chr> <date>         <dbl>  <dbl>     <dbl> <dttm>             
##  1 Afghanistan AFG   2020-01-22         0      0         0 2021-09-25 13:52:56
##  2 Afghanistan AFG   2020-01-23         0      0         0 2021-09-25 13:52:56
##  3 Afghanistan AFG   2020-01-24         0      0         0 2021-09-25 13:52:56
##  4 Afghanistan AFG   2020-01-25         0      0         0 2021-09-25 13:52:56
##  5 Afghanistan AFG   2020-01-26         0      0         0 2021-09-25 13:52:56
##  6 Afghanistan AFG   2020-01-27         0      0         0 2021-09-25 13:52:56
##  7 Afghanistan AFG   2020-01-28         0      0         0 2021-09-25 13:52:56
##  8 Afghanistan AFG   2020-01-29         0      0         0 2021-09-25 13:52:56
##  9 Afghanistan AFG   2020-01-30         0      0         0 2021-09-25 13:52:56
## 10 Afghanistan AFG   2020-01-31         0      0         0 2021-09-25 13:52:56
## # ... with 116,270 more rows
…
## 'var_def' tot 'TRUE'. the data comes in a list containing two data

## frames. The first contains the actual data, the second contains

## variable definitions. The column 'timestamp' reports the time the data

## was downloaded from its authoritative source.

## 

## For further information refer to: https://data.worldbank.org.

## 

## # A tibble: 217 x 11
##    iso3c country              region income population land_area_skm pop_density
##    <chr> <chr>                <chr>  <chr>       <dbl>         <dbl>       <dbl>
##  1 ABW   Aruba                "Lati~ High ~     106766           180       593. 
##  2 AFG   Afghanistan          "Sout~ Low i~   38928341        652860        59.6
##  3 AGO   Angola               "Sub-~ Lower~   32866268       1246700        26.4
##  4 ALB   Albania              "Euro~ Upper~    2837743         27400       104. 
##  5 AND   Andorra              "Euro~ High ~      77265           470       164. 
##  6 ARE   United Arab Emirates "Midd~ High ~    9890400         71020       139. 
##  7 ARG   Argentina            "Lati~ Upper~   45376763       2736690        16.6
##  8 ARM   Armenia              "Euro~ Upper~    2963234         28470       104. 
##  9 ASM   American Samoa       "East~ Upper~      55197           200       276. 
## 10 ATG   Antigua and Barbuda  "Lati~ High ~      97928           440       223. 
## # ... with 207 more rows, and 4 more variables: pop_largest_city <dbl>,
## #   life_expectancy <dbl>, gdp_capita <dbl>, timestamp <dttm>
…
cv_summary(cv_data, status = c("confirmed", "deaths", "recovered"),
country_list = c("United States", "United Kingdom", "Germany", "South Africa", "China", "Russia", "Iran","India"))

## `summarise()` has grouped output by 'country'. You can override using the `.groups` argument.

## $totals
## # A tibble: 48 x 13
##    country variable   cases population   area density    rate gdp_capita income 
##    <chr>   <chr>      <dbl>      <dbl>  <dbl>   <dbl>   <dbl>      <dbl> <chr>  
##  1 China   confirmed 1.04e5 1402112000 9.42e6    149. 7.40e+1      8405. Upper ~
##  2 China   daily_co~ 1.51e4 1402112000 9.42e6    149. 1.08e+1      8405. Upper ~
##  3 China   daily_de~ 1.29e3 1402112000 9.42e6    149. 9.20e-1      8405. Upper ~
##  4 China   daily_re~ 4.00e3 1402112000 9.42e6    149. 2.85e+0      8405. Upper ~
##  5 China   deaths    4.85e3 1402112000 9.42e6    149. 3.46e+0      8405. Upper ~
##  6 China   recovered 9.84e4 1402112000 9.42e6    149. 7.02e+1      8405. Upper ~
##  7 Germany confirmed 3.74e6   83240525 3.49e5    238. 4.49e+4     45065. High i~
##  8 Germany daily_co~ 4.90e4   83240525 3.49e5    238. 5.89e+2     45065. High i~
##  9 Germany daily_de~ 1.73e3   83240525 3.49e5    238. 2.08e+1     45065. High i~
## 10 Germany daily_re~ 4.45e4   83240525 3.49e5    238. 5.35e+2     45065. High i~
## # ... with 38 more rows, and 4 more variables: life_expectancy <dbl>,
## #   max_sd <dbl>, max_mr <dbl>, on <date>
## 
## $cum_cases_plot
…
The tibble includes 155 countries

CHALLENGE 4: Filter d to generate two additional tibbles, overall and daily that include only data on the variables confirmed and daily_confirmed cases, respectively. Depending on the dataset, the case and rate variables either reflect the overall (i.e., across the pandemic) or maximum daily number of cases and number of cases recorded per million people in the population.

Which 5 countries have experienced the highest overall rate of confirmed cases? Which 5 countries have experienced the highest single-day rate of confirmed cases? Which 5 countries have experienced the highest overall total of confirmed cases? Which 5 countries have experienced the highest single-day total of confirmed cases?

#overall 
overall <- d%>%
filter(variable == "confirmed") %>%
mutate(overall_rate = cases / 1000000 )
overall

## # A tibble: 155 x 14
##    country  variable   cases population   area density   rate gdp_capita income 
##    <chr>    <chr>      <dbl>      <dbl>  <dbl>   <dbl>  <dbl>      <dbl> <chr>  
##  1 Afghani~ confirmed 1.19e5   38928341 6.53e5   59.6  3.05e3       549. Low in~
##  2 Albania  confirmed 1.33e5    2837743 2.74e4  104.   4.67e4      5064. Upper ~
##  3 Algeria  confirmed 1.40e5   43851043 2.38e6   18.4  3.18e3      4363. Lower ~
##  4 Angola   confirmed 3.88e4   32866268 1.25e6   26.4  1.18e3      2891. Lower ~
##  5 Argenti~ confirmed 4.47e6   45376763 2.74e6   16.6  9.85e4      8693. Upper ~
##  6 Armenia  confirmed 2.25e5    2963234 2.85e4  104.   7.60e4      4364. Upper ~
##  7 Austral~ confirmed 3.06e4   25687041 7.69e6    3.34 1.19e3     56307. High i~
##  8 Austria  confirmed 6.50e5    8917205 8.25e4  108.   7.29e4     47009. High i~
##  9 Azerbai~ confirmed 3.36e5   10110116 8.27e4  122.   3.32e4      5593. Upper ~
## 10 Bahrain  confirmed 2.66e5    1701583 7.8 e2 2182.   1.56e5     19019. High i~
## # ... with 145 more rows, and 5 more variables: life_expectancy <dbl>,
## #   max_sd <dbl>, max_mr <dbl>, on <date>, overall_rate <dbl>
…
#daily
daily <-  d%>%
filter(variable == "daily_confirmed") %>%
mutate(daily_rate = cases / 1000000 )
daily

## # A tibble: 155 x 14
##    country  variable  cases population   area density   rate gdp_capita income  
##    <chr>    <chr>     <dbl>      <dbl>  <dbl>   <dbl>  <dbl>      <dbl> <chr>   
##  1 Afghani~ daily_co~  3243   38928341 6.53e5   59.6    83.3       549. Low inc~
##  2 Albania  daily_co~  1239    2837743 2.74e4  104.    437.       5064. Upper m~
##  3 Algeria  daily_co~  1133   43851043 2.38e6   18.4    25.8      4363. Lower m~
##  4 Angola   daily_co~   405   32866268 1.25e6   26.4    12.3      2891. Lower m~
##  5 Argenti~ daily_co~ 41080   45376763 2.74e6   16.6   905.       8693. Upper m~
##  6 Armenia  daily_co~  2476    2963234 2.85e4  104.    836.       4364. Upper m~
##  7 Austral~ daily_co~   716   25687041 7.69e6    3.34   27.9     56307. High in~
##  8 Austria  daily_co~  9586    8917205 8.25e4  108.   1075.      47009. High in~
##  9 Azerbai~ daily_co~  4451   10110116 8.27e4  122.    440.       5593. Upper m~
## 10 Bahrain  daily_co~  3273    1701583 7.8 e2 2182.   1924.      19019. High in~
## # ... with 145 more rows, and 5 more variables: life_expectancy <dbl>,
## #   max_sd <dbl>, max_mr <dbl>, on <date>, daily_rate <dbl>
…
